{
  "extras": [
    "lazyvim.plugins.extras.dap.core",
    "lazyvim.plugins.extras.lang.elixir",
    "lazyvim.plugins.extras.lang.git",
    "lazyvim.plugins.extras.lang.json",
    "lazyvim.plugins.extras.lang.tailwind",
    "lazyvim.plugins.extras.lang.toml",
    "lazyvim.plugins.extras.lang.yaml",
    "lazyvim.plugins.extras.lsp.none-ls",
    "lazyvim.plugins.extras.ui.indent-blankline"
  ],
  "install_version": 7,
  "news": {
    "NEWS.md": "10960",
    "doc/news.txt": "24450"
  },
  "version": 8
}